<?xml version="1.0" standalone="no"?>
<!DOCTYPE svg PUBLIC "-//W3C//DTD SVG 1.1//EN" "http://www.w3.org/Graphics/SVG/1.1/DTD/svg11.dtd">
<svg xmlns="http://www.w3.org/2000/svg">
<metadata>Generated by Fontastic.me</metadata>
<defs>
<font id="you3dit-fonts-ext" horiz-adv-x="512">
<font-face font-family="you3dit-fonts-ext" units-per-em="512" ascent="480" descent="-32"/>
<missing-glyph horiz-adv-x="512" />

<glyph unicode="&#97;" d="M400 144c-4 0-8-1-10-1l0-58c2-1 5-1 8-1 20 0 31 11 31 31 0 18-10 29-29 29z m41 31l0 260-181 0c11 10 32 10 52 9 21 0 44-1 56 12 6 7 9 17 8 31l-7 0c1-12-1-21-7-26-6-7-17-9-29-10 3 2 5 4 7 6 7 7 10 18 9 34l-8-1c1-13-1-22-6-28-8-9-22-9-38-9-17 0-34 0-45-11-2-2-4-4-5-7l-200 0 0-393 268 0c16-13 36-21 58-21 21 0 41 8 57 21l11 0 0 10c15 16 24 38 24 61 0 24-9 46-24 62z m-190 217l105 0c20 0 36-16 36-35l0-36-88 0c3 2 5 6 5 10 0 6-6 12-12 12l-3 0 0-22-3 0 0 53-40 0c0 7 0 13 0 18z m-154-35c0 19 16 35 35 35l109 0c0-5 0-11 0-18l-34 0 0-53-5 0 0 22-3 0c-7 0-12-6-12-12 0-4 2-8 4-10l-94 0z m237-285c-9 0-17 3-22 6l4 11c3-2 10-5 18-5 11 0 15 6 15 13 0 9-8 13-17 13l-7 0 0 11 6 0c7 0 16 3 16 10 0 6-4 10-13 10-6 0-12-3-16-5l-3 11c4 3 13 6 22 6 17 0 25-9 25-19 0-8-5-15-15-18l0-1c10-1 18-9 18-19 0-13-11-24-31-24z m-53 41c0-10 1-19 4-28l-16 0 0-1-137 0c-19 0-35 16-35 36l0 179 110 0 0-53 28 0 0-18c0-6 5-12 12-13l7 1c5 1 9 6 9 12l0 18 28 0 0 53 101 0 0-96c-7 2-13 2-19 2-51 0-92-41-92-92z m151-29c-8-8-21-11-37-11-8 0-15 0-19 1l0 79c6 2 14 2 23 2 15 0 26-3 33-9 8-7 13-16 13-30 0-14-5-25-13-32z"/>
<glyph unicode="&#98;" d="M26 244c0 31 6 61 18 90 12 29 28 55 48 76 21 22 45 39 74 52 28 14 59 20 90 21 33-1 63-7 92-21 29-13 53-30 73-52 20-21 36-47 47-76 12-29 18-59 18-90 0-23-3-49-9-76-5-27-13-49-22-66l-397 0c-10 17-18 39-23 66-6 27-9 53-9 76z m104-34c0-16 6-30 17-41 11-12 25-17 41-17l29 0 0 63 78 0 0-63 30 0c16 0 30 5 41 17 11 11 17 25 17 41l0 153c0 16-6 30-17 42-12 11-25 17-42 17l-136 0c-16 0-30-6-41-17-11-12-17-26-17-42z m32 21c0 5 2 9 6 13 4 5 9 7 14 7 4 0 9-2 13-7 4-4 6-8 6-13 0-5-2-9-6-13-4-4-9-7-13-7-5 0-10 3-14 7-4 4-6 8-6 13z m4 52l0 80c0 6 2 12 6 16 5 5 10 7 16 7l137 0c6 0 11-2 16-6 4-5 6-10 6-17l0-80c-2-1-6-3-10-4-5-2-15-3-31-6-15-2-32-4-50-4-18 0-34 2-49 4-15 2-26 4-32 6z m51-167l78 0 0 18-11 0c-2 0-3 1-5 2-2 2-3 4-4 5l-1 3 0 50-36 0 0-50c-3-7-7-10-10-10l-11 0z m94 115c0 5 2 9 6 13 4 5 8 7 13 7 5 0 10-2 14-6 4-4 6-8 6-13 0-5-2-9-6-14-4-4-9-7-14-7-5 0-9 3-13 7-4 4-6 8-6 13z"/>
<glyph unicode="&#99;" d="M475 82l0 220c-6-7-12-13-19-19-51-39-92-72-122-97-10-8-18-14-24-19-6-4-14-9-24-14-11-4-21-7-30-7l0 0c-9 0-19 3-30 7-10 5-18 10-24 14-6 5-14 11-24 19-30 25-71 58-122 97-7 6-13 12-19 19l0-220c0-2 0-4 2-6 2-2 4-3 7-3l420 0c3 0 5 1 7 3 2 2 2 4 2 6z m0 301l0 7c0 0 0 1 0 3 0 3 0 4-1 4 0 0-1 1-1 2-1 2-2 3-3 3-1-1-2-1-4 0l-420 0c-3 0-5-1-7-2-2-2-2-4-2-7 0-32 14-59 42-81 36-29 75-59 114-91 1-1 5-3 10-8 6-5 10-8 13-11 4-2 8-5 13-9 5-3 10-6 14-8 5-1 9-2 13-2l0 0c4 0 8 1 13 2 4 2 9 5 14 8 5 4 9 7 13 9 3 3 7 6 13 11 5 5 9 7 10 8 39 32 78 62 114 91 11 8 20 19 29 33 9 14 13 26 13 38z m37 10l0-311c0-12-4-23-13-32-9-9-20-13-33-13l-420 0c-13 0-24 4-33 13-9 9-13 20-13 32l0 311c0 13 4 23 13 32 9 9 20 14 33 14l420 0c13 0 24-5 33-14 9-9 13-19 13-32z"/>
<glyph unicode="&#100;" d="M512 309l0-227c0-12-4-23-13-32-9-9-20-13-33-13l-420 0c-13 0-24 4-33 13-9 9-13 20-13 32l0 227c8-9 18-17 29-25 69-47 116-79 142-98 11-8 20-15 26-19 7-4 16-9 27-14 12-4 22-7 32-7l0 0c10 0 20 3 32 7 11 5 20 10 27 14 6 4 15 11 26 19 33 23 80 56 142 98 11 8 21 16 29 25z m0 84c0-15-5-29-14-43-9-14-21-25-35-35-71-50-116-81-134-93-1-1-6-4-12-9-6-4-11-8-15-11-4-2-9-5-15-9-6-3-11-6-16-8-6-1-10-2-15-2l0 0c-5 0-9 1-15 2-5 2-10 5-16 8-6 4-11 7-15 9-4 3-9 7-15 11-6 5-11 8-12 9-18 12-43 30-75 52-33 23-52 36-59 41-12 8-23 19-33 33-11 14-16 27-16 39 0 15 4 27 12 37 8 10 19 15 34 15l420 0c13 0 23-5 32-14 9-9 14-19 14-32z"/>
</font></defs></svg>
